Engaging and Beautiful Data Visualizations with ggplot2
…
library(readr)
library(ggplot2)

bikes <-
  read_csv(
    here::here("data", "london-bikes.csv"),
    col_types = "Dcfffilllddddc"
  )

The Data Set

bikes

# A tibble: 1,454 × 14
   date       day_night year  month season count is_workday is_weekend is_holiday  temp temp_feel humidity wind_speed weather_type    
   <date>     <chr>     <fct> <fct> <fct>  <int> <lgl>      <lgl>      <lgl>      <dbl>     <dbl>    <dbl>      <dbl> <chr>           
 1 2015-01-04 day       2015  1     3       6830 FALSE      TRUE       FALSE       2.17     -0.75     95.2      10.4  broken clouds   
 2 2015-01-04 night     2015  1     3       2404 FALSE      TRUE       FALSE       2.79      2.04     93.4       4.58 clear           
 3 2015-01-05 day       2015  1     3      14763 TRUE       FALSE      FALSE       8.96      7.71     81.1       8.67 broken clouds   
 4 2015-01-05 night     2015  1     3       5609 TRUE       FALSE      FALSE       7.12      5.71     79.5       9.04 cloudy          
 5 2015-01-06 day       2015  1     3      14501 TRUE       FALSE      FALSE       9         6.46     80.2      19.2  broken clouds   
 6 2015-01-06 night     2015  1     3       6112 TRUE       FALSE      FALSE       6.71      4.21     77.6      12.8  clear           
 7 2015-01-07 day       2015  1     3      16358 TRUE       FALSE      FALSE       8.17      5.08     75.2      21.2  scattered clouds
 8 2015-01-07 night     2015  1     3       4706 TRUE       FALSE      FALSE       6.68      3.86     81.3      18.1  clear           
 9 2015-01-08 day       2015  1     3       9971 TRUE       FALSE      FALSE       9.46      7.12     79.4      18.8  scattered clouds
10 2015-01-08 night     2015  1     3       5630 TRUE       FALSE      FALSE      10.0       8.46     79.2      22.2  clear           
# ℹ 1,444 more rows
…
