Engaging and Beautiful Data Visualizations with ggplot2
…
Preparation: Plot

bikes |>
  dplyr::group_by(
    month = lubridate::month(date, label = TRUE), 
    day_night, year
  ) |> 
  dplyr::summarize(count = sum(count))

# A tibble: 48 × 4
# Groups:   month, day_night [24]
   month day_night year   count
   <ord> <chr>     <fct>  <int>
 1 Jan   day       2015  398555
 2 Jan   day       2016  423622
 3 Jan   night     2015  148084
 4 Jan   night     2016  158896
 5 Feb   day       2015  398429
 6 Feb   day       2016  438254
 7 Feb   night     2015  145165
 8 Feb   night     2016  154656
 9 Mar   day       2015  511860
10 Mar   day       2016  487395
# ℹ 38 more rows
…
$path
[1] "/Users/cedric/Library/Fonts/Asap-Bold.ttf"

$index
[1] 0

$features
NULL

Use Non-Default Typefaces

system_fonts()

# A tibble: 21,738 × 9
   path                                                                                                   index name  family style weight width italic monospace
   <chr>                                                                                                  <int> <chr> <chr>  <chr> <ord>  <ord> <lgl>  <lgl>    
 1 /Users/cedric/Library/Fonts/FontBase/Fira Code-Regular.ttf                                                 0 Fira… Fira … Regu… normal norm… FALSE  TRUE     
 2 /Users/cedric/Library/Fonts/FontBase/Tourney-200italic.ttf                                                 0 Tour… Tourn… Extr… normal norm… TRUE   FALSE    
 3 /Users/cedric/Library/Fonts/FontBase/Iosevka-Term-Curly-Slab-Light.ttf                                     0 Iose… Iosev… Light normal norm… FALSE  TRUE     
 4 /Users/cedric/Library/Fonts/Fraunces_144pt_Soft-BlackItalic.ttf                                            0 Frau… Fraun… Blac… heavy  norm… TRUE   FALSE    
 5 /System/Library/AssetsV2/com_apple_MobileAsset_Font7/28f00a24ba19995bab7249993e6e35d11011074a.asset/A…     0 SIL-… Kai    Regu… normal norm… FALSE  FALSE    
 6 /Users/cedric/Library/Fonts/Neutraface Text Bold Italic Alt.ttf                                            0 Neut… Neutr… Regu… bold   norm… TRUE   FALSE    
 7 /Users/cedric/Library/Fonts/THE_SOCIAL.ttf                                                                 0 THES… THE S… Regu… normal norm… FALSE  FALSE    
 8 /Users/cedric/Library/Fonts/FontBase/M PLUS 1-900.ttf                                                      0 MPLU… M PLU… Black heavy  norm… FALSE  FALSE    
 9 /Users/cedric/Library/Fonts/FontBase/Parix-Hybrid111R.otf                                                  0 Pari… Parix  Hybr… normal norm… FALSE  FALSE    
10 /Users/cedric/Library/Fonts/FontBase/InputMonoCondensed-Bold.ttf                                           0 Inpu… Input… Bold  bold   semi… FALSE  TRUE     
# ℹ 21,728 more rows
…
