Engaging and Beautiful Data Visualizations with ggplot2
…
Preparation: Plot

bikes |>
  dplyr::group_by(
    month = lubridate::month(date, label = TRUE), 
    day_night, year
  ) |> 
  dplyr::summarize(count = sum(count))

# A tibble: 48 × 4
# Groups:   month, day_night [24]
   month day_night year   count
   <ord> <chr>     <fct>  <int>
 1 Jan   day       2015  398555
 2 Jan   day       2016  423622
 3 Jan   night     2015  148084
 4 Jan   night     2016  158896
 5 Feb   day       2015  398429
 6 Feb   day       2016  438254
 7 Feb   night     2015  145165
 8 Feb   night     2016  154656
 9 Mar   day       2015  511860
10 Mar   day       2016  487395
# ℹ 38 more rows
…
$path
[1] "/Users/cedric/Library/Fonts/Asap-Bold.ttf"

$index
[1] 0

$features
NULL

Use Non-Default Typefaces

system_fonts()

# A tibble: 19,243 × 9
   path                                                                     index name                                family style weight width italic monospace
   <chr>                                                                    <int> <chr>                               <chr>  <chr> <ord>  <ord> <lgl>  <lgl>    
 1 /Users/cedric/Library/Fonts/FontBase/IntroHeadR-Base.otf                     0 IntroHeadR-Base                     Intro… Base  normal norm… FALSE  FALSE    
 2 /Users/cedric/Library/Fonts/Moniqa-ThinItalicHeading.otf                     0 Moniqa-ThinItalicHeading            Moniqa Thin… ultra… norm… TRUE   FALSE    
 3 /Users/cedric/Library/Fonts/FontBase/Bitter-200.ttf                          0 Bitter-ExtraLight                   Bitter Extr… normal norm… FALSE  FALSE    
 4 /Users/cedric/Library/Fonts/iosevka-ss02.ttc                                72 Iosevka-SS02-Medium                 Iosev… Medi… medium norm… FALSE  TRUE     
 5 /System/Library/Fonts/Supplemental/Bangla MN.ttc                             0 BanglaMN                            Bangl… Regu… normal norm… FALSE  FALSE    
 6 /Users/cedric/Library/Fonts/iosevka-ss01-extrabold.ttc                      17 Iosevka-Fixed-SS01-Extrabold-Exten… Iosev… Extr… ultra… norm… TRUE   TRUE     
 7 /Users/cedric/Library/Fonts/Anybody-ExtraExpandedExtraLight.otf              0 Anybody-ExtraExpandedExtraLight     Anybo… Extr… light  semi… FALSE  FALSE    
 8 /Users/cedric/Library/Fonts/Neutraface Text Demi Alt.ttf                     0 NeutrafaceText-DemiAlt              Neutr… Regu… semib… norm… FALSE  FALSE    
 9 /Users/cedric/Library/Fonts/PlusJakartaSans-Italic-VariableFont_wght.ttf     1 PlusJakartaSansItalic-Light         Plus … Ligh… normal norm… TRUE   FALSE    
10 /Users/cedric/Library/Fonts/aleo-italic-webfont.ttf                          0 Aleo-Italic                         Aleo   Ital… normal norm… TRUE   FALSE    
# ℹ 19,233 more rows
…
